module gitlab.com/assembly4/geneva

go 1.17

require github.com/gin-gonic/gin v1.7.7

require (
	github.com/gin-contrib/sse v0.1.0 // indirect
	github.com/go-playground/locales v0.14.0 // indirect
	github.com/go-playground/universal-translator v0.18.0 // indirect
	github.com/go-playground/validator/v10 v10.10.0 // indirect
	github.com/golang/protobuf v1.5.2 // indirect
	github.com/jackc/pgx/v4 v4.14.1
	github.com/json-iterator/go v1.1.12 // indirect
	github.com/leodido/go-urn v1.2.1 // indirect
	github.com/mattn/go-isatty v0.0.14 // indirect
	github.com/modern-go/concurrent v0.0.0-20180306012644-bacd9c7ef1dd // indirect
	github.com/modern-go/reflect2 v1.0.2 // indirect
	github.com/ugorji/go/codec v1.2.6 // indirect
	golang.org/x/crypto v0.0.0-20220131195533-30dcbda58838
	golang.org/x/sys v0.0.0-20220128215802-99c3d69c2c27 // indirect
	gopkg.in/yaml.v2 v2.4.0 // indirect
)

require (
	github.com/golang-jwt/jwt v3.2.2+incompatible
	github.com/jackc/chunkreader/v2 v2.0.1 // indirect
	github.com/jackc/pgconn v1.10.1 // indirect
	github.com/jackc/pgio v1.0.0 // indirect
	github.com/jackc/pgpassfile v1.0.0 // indirect
	github.com/jackc/pgproto3/v2 v2.2.0 // indirect
	github.com/jackc/pgservicefile v0.0.0-20200714003250-2b9c44734f2b // indirect
	github.com/jackc/pgtype v1.9.1 // indirect
	github.com/lib/pq v1.10.3 // indirect
	gitlab.com/assembly4/bern v0.0.0-20220202084647-95fa7a1415de
	golang.org/x/text v0.3.7 // indirect
)

require (
	github.com/gin-contrib/cors v1.3.1
	github.com/jackc/puddle v1.2.1 // indirect
	google.golang.org/protobuf v1.27.1 // indirect
)

require github.com/rs/zerolog v1.26.1 // indirect
